^C:\USERS\PHILIPP\DESKTOP\SKP\PROJEKT\RUBIKSCUBE\FCOLOR.GLSL
^C:\USERS\PHILIPP\DESKTOP\SKP\PROJEKT\RUBIKSCUBE\VCOLOR.GLSL
^C:\USERS\PHILIPP\DESKTOP\SKP\PROJEKT\RUBIKSCUBE\WOOSH.WAV
^C:\USERS\PHILIPP\DESKTOP\SKP\PROJEKT\RUBIKSCUBE\TEXTURE.JPG
