^C:\USERS\PHILIPP\DESKTOP\SKP\PROJEKT\RUBIKSCUBE\X64\RELEASE\BUILD.OBJ|C:\USERS\PHILIPP\DESKTOP\SKP\PROJEKT\RUBIKSCUBE\X64\RELEASE\CUBIERENDERER.OBJ|C:\USERS\PHILIPP\DESKTOP\SKP\PROJEKT\RUBIKSCUBE\X64\RELEASE\GAMEINTERFACE.OBJ|C:\USERS\PHILIPP\DESKTOP\SKP\PROJEKT\RUBIKSCUBE\X64\RELEASE\INPUTSYSTEM.OBJ|C:\USERS\PHILIPP\DESKTOP\SKP\PROJEKT\RUBIKSCUBE\X64\RELEASE\KEYBOARDOBSERVER.OBJ|C:\USERS\PHILIPP\DESKTOP\SKP\PROJEKT\RUBIKSCUBE\X64\RELEASE\RUBIKSCUBE.OBJ|C:\USERS\PHILIPP\DESKTOP\SKP\PROJEKT\RUBIKSCUBE\X64\RELEASE\SHADERUTIL.OBJ
/OUT:"C:\USERS\PHILIPP\DESKTOP\SKP\PROJEKT\RUBIKSCUBE\X64\RELEASE\RUBIKSCUBE.EXE" /INCREMENTAL:NO /NOLOGO /LIBPATH:C:\USERS\PHILIPP\DESKTOP\SKP\PROJEKT\RUBIKSCUBE\\..\EXTERNALRESOURCES\GLEW\LIB\RELEASE\X64 /LIBPATH:"C:\USERS\PHILIPP\DESKTOP\SKP\PROJEKT\RUBIKSCUBE\\..\EXTERNALRESOURCES\GLFW\LIB-VC2019" OPENGL32.LIB GLFW3.LIB GLEW32S.LIB WINMM.LIB KERNEL32.LIB USER32.LIB GDI32.LIB WINSPOOL.LIB COMDLG32.LIB ADVAPI32.LIB SHELL32.LIB OLE32.LIB OLEAUT32.LIB UUID.LIB ODBC32.LIB ODBCCP32.LIB /MANIFEST /MANIFESTUAC:"level='asInvoker' uiAccess='false'" /manifest:embed /DEBUG /PDB:"C:\USERS\PHILIPP\DESKTOP\SKP\PROJEKT\RUBIKSCUBE\X64\RELEASE\RUBIKSCUBE.PDB" /SUBSYSTEM:CONSOLE /OPT:REF /OPT:ICF /LTCG:incremental /TLBID:1 /DYNAMICBASE /NXCOMPAT /IMPLIB:"C:\USERS\PHILIPP\DESKTOP\SKP\PROJEKT\RUBIKSCUBE\X64\RELEASE\RUBIKSCUBE.LIB" /MACHINE:X64 X64\RELEASE\BUILD.OBJ
X64\RELEASE\CUBIERENDERER.OBJ
X64\RELEASE\GAMEINTERFACE.OBJ
X64\RELEASE\INPUTSYSTEM.OBJ
X64\RELEASE\KEYBOARDOBSERVER.OBJ
X64\RELEASE\RUBIKSCUBE.OBJ
X64\RELEASE\SHADERUTIL.OBJ
